EESchema Schematic File Version 4
EELAYER 30 0
EELAYER END
$Descr A4 11693 8268
encoding utf-8
Sheet 1 1
Title ""
Date ""
Rev ""
Comp ""
Comment1 ""
Comment2 ""
Comment3 ""
Comment4 ""
$EndDescr
$Comp
L MCU_Module:WeMos_D1_mini U2
U 1 1 616F16DD
P 4700 4150
F 0 "U2" H 4700 3261 50  0000 C CNN
F 1 "WeMos_D1_mini" H 4700 3170 50  0000 C CNN
F 2 "Module:WEMOS_D1_mini_light" H 4700 3000 50  0001 C CNN
F 3 "https://wiki.wemos.cc/products:d1:d1_mini#documentation" H 2850 3000 50  0001 C CNN
	1    4700 4150
	1    0    0    -1  
$EndComp
$Comp
L MCU_AnalogDevices:DFPlayer-mini U3
U 1 1 616F42F1
P 6600 4800
F 0 "U3" H 6625 6215 50  0000 C CNN
F 1 "DFPlayer-mini" H 6625 6124 50  0000 C CNN
F 2 "" H 6600 4800 50  0001 C CNN
F 3 "" H 6600 4800 50  0001 C CNN
	1    6600 4800
	1    0    0    -1  
$EndComp
$Comp
L power:+5V #PWR0101
U 1 1 616F51DE
P 3650 1450
F 0 "#PWR0101" H 3650 1300 50  0001 C CNN
F 1 "+5V" H 3665 1623 50  0000 C CNN
F 2 "" H 3650 1450 50  0001 C CNN
F 3 "" H 3650 1450 50  0001 C CNN
	1    3650 1450
	1    0    0    -1  
$EndComp
$Comp
L power:GND #PWR0102
U 1 1 616F5A85
P 2750 2400
F 0 "#PWR0102" H 2750 2150 50  0001 C CNN
F 1 "GND" H 2755 2227 50  0000 C CNN
F 2 "" H 2750 2400 50  0001 C CNN
F 3 "" H 2750 2400 50  0001 C CNN
	1    2750 2400
	1    0    0    -1  
$EndComp
$Comp
L Battery_Management:Pololu_D24V10F5 U1
U 1 1 616FA3C1
P 2950 2650
F 0 "U1" H 2750 4065 50  0000 C CNN
F 1 "Pololu_D24V10F5" H 2750 3974 50  0000 C CNN
F 2 "" H 2950 2650 50  0001 C CNN
F 3 "" H 2950 2650 50  0001 C CNN
	1    2950 2650
	1    0    0    -1  
$EndComp
Wire Wire Line
	3300 1550 3650 1550
Wire Wire Line
	3650 1550 3650 1450
$Comp
L power:+5V #PWR0103
U 1 1 616FDEB5
P 4600 3200
F 0 "#PWR0103" H 4600 3050 50  0001 C CNN
F 1 "+5V" H 4615 3373 50  0000 C CNN
F 2 "" H 4600 3200 50  0001 C CNN
F 3 "" H 4600 3200 50  0001 C CNN
	1    4600 3200
	1    0    0    -1  
$EndComp
Wire Wire Line
	4600 3200 4600 3350
$Comp
L power:GND #PWR0104
U 1 1 616FEB8F
P 4700 5350
F 0 "#PWR0104" H 4700 5100 50  0001 C CNN
F 1 "GND" H 4705 5177 50  0000 C CNN
F 2 "" H 4700 5350 50  0001 C CNN
F 3 "" H 4700 5350 50  0001 C CNN
	1    4700 5350
	1    0    0    -1  
$EndComp
Wire Wire Line
	4700 4950 4700 5350
$Comp
L power:+5V #PWR0105
U 1 1 616FF57B
P 6050 3500
F 0 "#PWR0105" H 6050 3350 50  0001 C CNN
F 1 "+5V" H 6065 3673 50  0000 C CNN
F 2 "" H 6050 3500 50  0001 C CNN
F 3 "" H 6050 3500 50  0001 C CNN
	1    6050 3500
	1    0    0    -1  
$EndComp
$Comp
L power:GND #PWR0106
U 1 1 616FFD78
P 6100 4850
F 0 "#PWR0106" H 6100 4600 50  0001 C CNN
F 1 "GND" H 6105 4677 50  0000 C CNN
F 2 "" H 6100 4850 50  0001 C CNN
F 3 "" H 6100 4850 50  0001 C CNN
	1    6100 4850
	1    0    0    -1  
$EndComp
Wire Wire Line
	6050 3500 6050 3650
Wire Wire Line
	6050 3650 6150 3650
Wire Wire Line
	5100 4250 5600 4250
Wire Wire Line
	5600 4250 5600 3900
Wire Wire Line
	5100 4350 5700 4350
Wire Wire Line
	5600 3900 6150 3900
Wire Wire Line
	5700 4350 5700 3800
Wire Wire Line
	5700 3800 6150 3800
Text GLabel 6000 4300 0    50   Output ~ 0
SPK1
Text GLabel 6000 4500 0    50   Output ~ 0
SPK2
Wire Wire Line
	6000 4300 6150 4300
Wire Wire Line
	6000 4500 6150 4500
$Comp
L Device:Battery_Cell BT1
U 1 1 61711012
P 1200 1900
F 0 "BT1" H 1318 1996 50  0000 L CNN
F 1 "Battery_Cell 9V" H 1318 1905 50  0000 L CNN
F 2 "" V 1200 1960 50  0001 C CNN
F 3 "~" V 1200 1960 50  0001 C CNN
	1    1200 1900
	1    0    0    -1  
$EndComp
$Comp
L Switch:SW_DIP_x01 SW1
U 1 1 61712796
P 1750 1550
F 0 "SW1" H 1750 1817 50  0000 C CNN
F 1 "SW_DIP_x01" H 1750 1726 50  0000 C CNN
F 2 "" H 1750 1550 50  0001 C CNN
F 3 "~" H 1750 1550 50  0001 C CNN
	1    1750 1550
	1    0    0    -1  
$EndComp
Wire Wire Line
	1200 1700 1200 1550
Wire Wire Line
	1200 1550 1450 1550
Wire Wire Line
	2050 1550 2200 1550
Wire Wire Line
	1200 2000 1200 2200
Wire Wire Line
	1200 2200 2750 2200
Connection ~ 2750 2200
$Comp
L Timer_RTC:DS1307+ U4
U 1 1 61716627
P 6650 2550
F 0 "U4" H 7194 2596 50  0000 L CNN
F 1 "DS1307+" H 7194 2505 50  0000 L CNN
F 2 "Package_DIP:DIP-8_W7.62mm" H 6650 2050 50  0001 C CNN
F 3 "https://datasheets.maximintegrated.com/en/ds/DS1307.pdf" H 6650 2350 50  0001 C CNN
	1    6650 2550
	1    0    0    -1  
$EndComp
Wire Wire Line
	5100 3850 5250 3850
Wire Wire Line
	5250 3850 5250 2350
Wire Wire Line
	5250 2350 6150 2350
Wire Wire Line
	6150 2450 5350 2450
Wire Wire Line
	5350 2450 5350 3950
Wire Wire Line
	5350 3950 5100 3950
$Comp
L power:+5V #PWR0107
U 1 1 61719732
P 6550 1950
F 0 "#PWR0107" H 6550 1800 50  0001 C CNN
F 1 "+5V" H 6565 2123 50  0000 C CNN
F 2 "" H 6550 1950 50  0001 C CNN
F 3 "" H 6550 1950 50  0001 C CNN
	1    6550 1950
	1    0    0    -1  
$EndComp
$Comp
L power:GND #PWR0108
U 1 1 61719EC7
P 6650 3100
F 0 "#PWR0108" H 6650 2850 50  0001 C CNN
F 1 "GND" H 6655 2927 50  0000 C CNN
F 2 "" H 6650 3100 50  0001 C CNN
F 3 "" H 6650 3100 50  0001 C CNN
	1    6650 3100
	1    0    0    -1  
$EndComp
Wire Wire Line
	2750 2200 2750 2400
Wire Wire Line
	6150 4400 6100 4400
Wire Wire Line
	6100 4400 6100 4850
Wire Wire Line
	6650 2950 6650 3100
Wire Wire Line
	6550 2150 6550 1950
$Comp
L Device:Speaker LS1
U 1 1 6171C2F5
P 8700 5450
F 0 "LS1" H 8870 5446 50  0000 L CNN
F 1 "Speaker" H 8870 5355 50  0000 L CNN
F 2 "" H 8700 5250 50  0001 C CNN
F 3 "~" H 8690 5400 50  0001 C CNN
	1    8700 5450
	1    0    0    -1  
$EndComp
Text GLabel 6200 5450 0    50   Input ~ 0
SPK1
Text GLabel 6200 5550 0    50   Input ~ 0
SPK2
Wire Wire Line
	6200 5450 6500 5450
Wire Wire Line
	6200 5550 6500 5550
$Comp
L Connector:Conn_01x02_Female J1
U 1 1 6173459E
P 6700 5450
F 0 "J1" H 6728 5426 50  0000 L CNN
F 1 "Conn_01x02_Female" H 6728 5335 50  0000 L CNN
F 2 "" H 6700 5450 50  0001 C CNN
F 3 "~" H 6700 5450 50  0001 C CNN
	1    6700 5450
	1    0    0    -1  
$EndComp
$Comp
L Connector:Conn_01x02_Male J2
U 1 1 61735DF3
P 7950 5450
F 0 "J2" H 8058 5631 50  0000 C CNN
F 1 "Conn_01x02_Male" H 8058 5540 50  0000 C CNN
F 2 "" H 7950 5450 50  0001 C CNN
F 3 "~" H 7950 5450 50  0001 C CNN
	1    7950 5450
	1    0    0    -1  
$EndComp
Wire Wire Line
	8150 5450 8500 5450
Wire Wire Line
	8500 5550 8150 5550
NoConn ~ 4300 3750
NoConn ~ 4300 4050
NoConn ~ 4300 4150
NoConn ~ 4800 3350
NoConn ~ 5100 3650
NoConn ~ 5100 3750
NoConn ~ 5100 4050
NoConn ~ 5100 4150
NoConn ~ 5100 4450
NoConn ~ 5100 4550
NoConn ~ 6150 4150
NoConn ~ 6150 4050
NoConn ~ 7100 3650
NoConn ~ 7100 3800
NoConn ~ 7100 3900
NoConn ~ 7100 4050
NoConn ~ 7100 4150
NoConn ~ 7100 4300
NoConn ~ 7100 4400
NoConn ~ 7100 4500
NoConn ~ 6150 2650
NoConn ~ 6150 2750
NoConn ~ 7150 2550
NoConn ~ 6650 2150
NoConn ~ 3300 1750
NoConn ~ 2200 1750
$EndSCHEMATC
